{
  "name" : "connect-sink-rps",
  "config" : {
    "name" : "connect-sink-rps",
    "connector.class" : "com.nickem.connect.rpc.sink.RpsSinkConnector",
    "topics" : "play-store-1r-5p",
    "tasks.max" : "1",
    "key.converter" : "org.apache.kafka.connect.storage.StringConverter",
    "value.converter" : "org.apache.kafka.connect.storage.StringConverter",
    "resource.url.base": "http://kafka-poc-postgres-consumer:8091",
    "resource.url.path": "/play-store-apps"
  }
}
